…
Here we can do a simple data check:

```r
acc$header
```

```
# A tibble: 21 x 2
   Field            Value              
   <chr>            <chr>              
 1 Serial Number    NEO1F09120035      
 2 Device Type      GT3XPlus           
 3 Firmware         3.2.1              
 4 Battery Voltage  4.02               
 5 Sample Rate      30                 
 6 Start Date       2017-03-24 16:30:00
 7 Stop Date        2017-03-31 16:30:00
 8 Last Sample Time 2017-03-31 16:30:00
 9 TimeZone         01:00:00           
10 Download Date    2017-04-11 13:12:29
#  with 11 more rows
```
…
