Analysis of Raw GT3X files to Summary Measures in Chadwell et. al Data
…
acc$freq # sample rate

[1] 30

acc$header

# A tibble: 21 x 2
   Field            Value              
   <chr>            <chr>              
 1 Serial Number    NEO1B41100262      
 2 Device Type      GT3XPlus           
 3 Firmware         3.2.1              
 4 Battery Voltage  4.19               
 5 Sample Rate      30                 
 6 Start Date       2017-05-09 14:00:00
 7 Stop Date        2017-05-16 14:00:00
 8 Last Sample Time 2017-05-16 14:00:00
 9 TimeZone         01:00:00           
10 Download Date    2017-05-17 12:05:23
#  with 11 more rows
…
$header
 [1] "------------ Data File Created By ActiGraph GT3X+ ActiLife v6.11.9 Firmware v3.2.1 date format dd/MM/yyyy at 30 Hz  Filter Normal -----------"
 [2] "Serial Number: NEO1B41100262"                                                                                                                 
 [3] "Start Time 14:00:00"                                                                                                                          
 [4] "Start Date 09/05/2017"                                                                                                                        
 [5] "Epoch Period (hh:mm:ss) 00:00:00"                                                                                                             
 [6] "Download Time 12:05:23"                                                                                                                       
 [7] "Download Date 17/05/2017"                                                                                                                     
 [8] "Current Memory Address: 0"                                                                                                                    
 [9] "Current Battery Voltage: 4.19     Mode = 12"                                                                                                  
[10] "--------------------------------------------------"                                                                                           

$data
# A tibble: 18,144,000 x 4
   time                    X      Y     Z
   <dttm>              <dbl>  <dbl> <dbl>
 1 2017-05-09 14:00:00 0.499 -0.176 0.856
 2 2017-05-09 14:00:00 0.501 -0.173 0.856
 3 2017-05-09 14:00:00 0.504 -0.173 0.856
 4 2017-05-09 14:00:00 0.499 -0.176 0.856
 5 2017-05-09 14:00:00 0.501 -0.173 0.862
 6 2017-05-09 14:00:00 0.501 -0.173 0.856
 7 2017-05-09 14:00:00 0.499 -0.173 0.862
 8 2017-05-09 14:00:00 0.501 -0.173 0.862
 9 2017-05-09 14:00:00 0.504 -0.176 0.862
10 2017-05-09 14:00:00 0.501 -0.17  0.856
#  with 18,143,990 more rows

We see the information from what ActiGraph software version created the file, as well as information pertinent to the GT3X+ device. We can compare this information from the header from the .gt3x file:

acc$header

# A tibble: 21 x 2
   Field            Value              
   <chr>            <chr>              
 1 Serial Number    NEO1B41100262      
 2 Device Type      GT3XPlus           
 3 Firmware         3.2.1              
 4 Battery Voltage  4.19               
 5 Sample Rate      30                 
 6 Start Date       2017-05-09 14:00:00
 7 Stop Date        2017-05-16 14:00:00
 8 Last Sample Time 2017-05-16 14:00:00
 9 TimeZone         01:00:00           
10 Download Date    2017-05-17 12:05:23
#  with 11 more rows
…
